[gd_resource type="Environment" load_steps=2 format=2]

[sub_resource type="ProceduralSky" id=1]

[resource]
background_mode = 2
background_sky = SubResource( 1 )
background_color = Color( 0.168627, 0.145098, 0.145098, 1 )
ambient_light_color = Color( 0.309804, 0.309804, 0.309804, 1 )
ambient_light_sky_contribution = 0.0
